<<<<<<< HEAD
{"dates":{"maximum":"2021-07-31","minimum":"2021-06-13"},"page":1,"results":[{"adult":false,"backdrop_path":"/4epzcO9HGbfc8BUJT0oNkL3rmCO.jpg","genre_ids":[28,80,53],"id":385128,"original_language":"en","original_title":"F9","overview":"Dominic Toretto and his crew battle the most skilled assassin and high-performance driver they've ever encountered: his forsaken brother.","popularity":5860.581,"poster_path":"/bOFaAXmWWXC3Rbv4u4uM9ZSzRXP.jpg","release_date":"2021-05-19","title":"F9","video":false,"vote_average":7.8,"vote_count":1728},{"adult":false,"backdrop_path":"/8s4h9friP6Ci3adRGahHARVd76E.jpg","genre_ids":[16,35,10751,878],"id":379686,"original_language":"en","original_title":"Space Jam: A New Legacy","overview":"When LeBron and his young son Dom are trapped in a digital space by a rogue A.I., LeBron must get them home safe by leading Bugs, Lola Bunny and the whole gang of notoriously undisciplined Looney Tunes to victory over the A.I.'s digitized champions on the court. It's Tunes versus Goons in the highest-stakes challenge of his life.","popularity":4781.639,"poster_path":"/5bFK5d3mVTAvBCXi5NPWH0tYjKl.jpg","release_date":"2021-07-08","title":"Space Jam: A New Legacy","video":false,"vote_average":7.7,"vote_count":1419},{"adult":false,"backdrop_path":"/dq18nCTTLpy9PmtzZI6Y2yAgdw5.jpg","genre_ids":[28,12,53,878],"id":497698,"original_language":"en","original_title":"Black Widow","overview":"Natasha Romanoff, also known as Black Widow, confronts the darker parts of her ledger when a dangerous conspiracy with ties to her past arises. Pursued by a force that will stop at nothing to bring her down, Natasha must deal with her history as a spy and the broken relationships left in her wake long before she became an Avenger.","popularity":4627.772,"poster_path":"/qAZ0pzat24kLdO3o8ejmbLxyOac.jpg","release_date":"2021-07-07","title":"Black Widow","video":false,"vote_average":7.9,"vote_count":3662},{"adult":false,"backdrop_path":"/tehpKMsls621GT9WUQie2Ft6LmP.jpg","genre_ids":[12,53,28,27,37],"id":602223,"original_language":"en","original_title":"The Forever Purge","overview":"All the rules are broken as a sect of lawless marauders decides that the annual Purge does not stop at daybreak and instead should never end as they chase a group of immigrants who they want to punish because of their harsh historical past.","popularity":3702.294,"poster_path":"/uHA5COgDzcxjpYSHHulrKVl6ByL.jpg","release_date":"2021-06-30","title":"The Forever Purge","video":false,"vote_average":7.8,"vote_count":726},{"adult":false,"backdrop_path":"/gX5UrH1TLVVBwI7WxplW43BD6Z1.jpg","genre_ids":[16,35,12,10751],"id":459151,"original_language":"en","original_title":"The Boss Baby: Family Business","overview":"The Templeton brothers — Tim and his Boss Baby little bro Ted — have become adults and drifted away from each other. But a new boss baby with a cutting-edge approach and a can-do attitude is about to bring them together again … and inspire a new family business.","popularity":3444.216,"poster_path":"/5dExO5G2iaaTxYnLIFKLWofDzyI.jpg","release_date":"2021-07-01","title":"The Boss Baby: Family Business","video":false,"vote_average":7.9,"vote_count":992},{"adult":false,"backdrop_path":"/620hnMVLu6RSZW6a5rwO8gqpt0t.jpg","genre_ids":[16,35,10751,14],"id":508943,"original_language":"en","original_title":"Luca","overview":"Luca and his best friend Alberto experience an unforgettable summer on the Italian Riviera. But all the fun is threatened by a deeply-held secret: they are sea monsters from another world just below the water’s surface.","popularity":3019.966,"poster_path":"/jTswp6KyDYKtvC52GbHagrZbGvD.jpg","release_date":"2021-06-17","title":"Luca","video":false,"vote_average":8.1,"vote_count":3426},{"adult":false,"backdrop_path":"/7WJjFviFBffEJvkAms4uWwbcVUk.jpg","genre_ids":[12,14,35,28],"id":451048,"original_language":"en","original_title":"Jungle Cruise","overview":"Dr. Lily Houghton enlists the aid of wisecracking skipper Frank Wolff to take her down the Amazon in his dilapidated boat. Together, they search for an ancient tree that holds the power to heal – a discovery that will change the future of medicine.","popularity":1946.942,"poster_path":"/9dKCd55IuTT5QRs989m9Qlb7d2B.jpg","release_date":"2021-07-28","title":"Jungle Cruise","video":false,"vote_average":8.2,"vote_count":645},{"adult":false,"backdrop_path":"/zm2kMjiz0u6qdn2XKbEbQkDiltN.jpg","genre_ids":[27],"id":675024,"original_language":"es","original_title":"El exorcismo de Carmen Farías","overview":"Carmen, a brave journalist, discovers soon after her mother's death that she has inherited her grandma's house. She decides to move there without knowing it hides dark secrets.","popularity":2581.669,"poster_path":"/uoTPjx07dxTrC1g3dYeaS2WNVGL.jpg","release_date":"2021-07-05","title":"The Exorcism of Carmen Farias","video":false,"vote_average":6.6,"vote_count":36},{"adult":false,"backdrop_path":"/6MKr3KgOLmzOP6MSuZERO41Lpkt.jpg","genre_ids":[35,80],"id":337404,"original_language":"en","original_title":"Cruella","overview":"In 1970s London amidst the punk rock revolution, a young grifter named Estella is determined to make a name for herself with her designs. She befriends a pair of young thieves who appreciate her appetite for mischief, and together they are able to build a life for themselves on the London streets. One day, Estella’s flair for fashion catches the eye of the Baroness von Hellman, a fashion legend who is devastatingly chic and terrifyingly haute. But their relationship sets in motion a course of events and revelations that will cause Estella to embrace her wicked side and become the raucous, fashionable and revenge-bent Cruella.","popularity":1635.546,"poster_path":"/rTh4K5uw9HypmpGslcKd4QfHl93.jpg","release_date":"2021-05-26","title":"Cruella","video":false,"vote_average":8.4,"vote_count":4478},{"adult":false,"backdrop_path":"/AsqUSUqXrK8JfH8WEQnCXVbIAv6.jpg","genre_ids":[878,53,27],"id":520763,"original_language":"en","original_title":"A Quiet Place Part II","overview":"Following the events at home, the Abbott family now face the terrors of the outside world. Forced to venture into the unknown, they realize that the creatures that hunt by sound are not the only threats that lurk beyond the sand path.","popularity":1436.462,"poster_path":"/4q2hz2m8hubgvijz8Ez0T2Os2Yv.jpg","release_date":"2021-05-21","title":"A Quiet Place Part II","video":false,"vote_average":7.7,"vote_count":2303},{"adult":false,"backdrop_path":"/5HjzYTihkH7EvOWSE7KcsF6pBMM.jpg","genre_ids":[10751,35,12,16,14],"id":522478,"original_language":"en","original_title":"Peter Rabbit 2: The Runaway","overview":"Bea, Thomas, and the rabbits have created a makeshift family, but despite his best efforts, Peter can’t seem to shake his mischievous reputation. Adventuring out of the garden, Peter finds himself in a world where his mischief is appreciated, but when his family risks everything to come looking for him, Peter must figure out what kind of bunny he wants to be.","popularity":1481.849,"poster_path":"/cycDz68DtTjJrDJ1fV8EBq2Xdpb.jpg","release_date":"2021-03-25","title":"Peter Rabbit 2: The Runaway","video":false,"vote_average":7.4,"vote_count":223},{"adult":false,"backdrop_path":"/70AV2Xx5FQYj20labp0EGdbjI6E.jpg","genre_ids":[80,28,53],"id":637649,"original_language":"en","original_title":"Wrath of Man","overview":"A cold and mysterious new security guard for a Los Angeles cash truck company surprises his co-workers when he unleashes precision skills during a heist. The crew is left wondering who he is and where he came from. Soon, the marksman's ultimate motive becomes clear as he takes dramatic and irrevocable steps to settle a score.","popularity":1558.624,"poster_path":"/M7SUK85sKjaStg4TKhlAVyGlz3.jpg","release_date":"2021-04-22","title":"Wrath of Man","video":false,"vote_average":7.9,"vote_count":1672},{"adult":false,"backdrop_path":"/6FzuNrApEc71aJ3CwwkpadbNled.jpg","genre_ids":[28,35,80],"id":581644,"original_language":"en","original_title":"The Misfits","overview":"After being recruited by a group of unconventional thieves, renowned criminal Richard Pace finds himself caught up in an elaborate gold heist that promises to have far-reaching implications on his life and the lives of countless others.","popularity":1460.728,"poster_path":"/dPOyYnCkRbWAEem85N3VFpQODf5.jpg","release_date":"2021-06-10","title":"The Misfits","video":false,"vote_average":5.4,"vote_count":85},{"adult":false,"backdrop_path":"/ok7RdHhVngnwkvKj09tvtOvypG.jpg","genre_ids":[80,18,53,9648],"id":649409,"original_language":"en","original_title":"No Sudden Move","overview":"A group of criminals are brought together under mysterious circumstances and have to work together to uncover what's really going on when their simple job goes completely sideways.","popularity":1054.1,"poster_path":"/34BmdJkdvRweC3xJJFlOFQ2IbYc.jpg","release_date":"2021-06-24","title":"No Sudden Move","video":false,"vote_average":6.6,"vote_count":145},{"adult":false,"backdrop_path":"/qi6Edc1OPcyENecGtz8TF0DUr9e.jpg","genre_ids":[27,9648,53],"id":423108,"original_language":"en","original_title":"The Conjuring: The Devil Made Me Do It","overview":"Paranormal investigators Ed and Lorraine Warren encounter what would become one of the most sensational cases from their files. The fight for the soul of a young boy takes them beyond anything they'd ever seen before, to mark the first time in U.S. history that a murder suspect would claim demonic possession as a defense.","popularity":1156.593,"poster_path":"/xbSuFiJbbBWCkyCCKIMfuDCA4yV.jpg","release_date":"2021-05-25","title":"The Conjuring: The Devil Made Me Do It","video":false,"vote_average":7.9,"vote_count":3279},{"adult":false,"backdrop_path":"/9yBVqNruk6Ykrwc32qrK2TIE5xw.jpg","genre_ids":[28,14,12],"id":460465,"original_language":"en","original_title":"Mortal Kombat","overview":"Washed-up MMA fighter Cole Young, unaware of his heritage, and hunted by Emperor Shang Tsung's best warrior, Sub-Zero, seeks out and trains with Earth's greatest champions as he prepares to stand against the enemies of Outworld in a high stakes battle for the universe.","popularity":1009.889,"poster_path":"/nkayOAUBUu4mMvyNf9iHSUiPjF1.jpg","release_date":"2021-04-07","title":"Mortal Kombat","video":false,"vote_average":7.4,"vote_count":3422},{"adult":false,"backdrop_path":"/q2mtFwvQQbun4nM9p16gA3Hqb0H.jpg","genre_ids":[9648,53,27],"id":631843,"original_language":"en","original_title":"Old","overview":"A group of families on a tropical holiday discover that the secluded beach where they are staying is somehow causing them to age rapidly – reducing their entire lives into a single day.","popularity":806.465,"poster_path":"/cGLL4SY6jFjjUZkz2eFxgtCtGgK.jpg","release_date":"2021-07-21","title":"Old","video":false,"vote_average":6.4,"vote_count":238},{"adult":false,"backdrop_path":"/xPpXYnCWfjkt3zzE0dpCNME1pXF.jpg","genre_ids":[16,28,12,14],"id":635302,"original_language":"ja","original_title":"劇場版「鬼滅の刃」無限列車編","overview":"Tanjirō Kamado, joined with Inosuke Hashibira, a boy raised by boars who wears a boar's head, and Zenitsu Agatsuma, a scared boy who reveals his true power when he sleeps, boards the Infinity Train on a new mission with the Fire Hashira, Kyōjurō Rengoku, to defeat a demon who has been tormenting the people and killing the demon slayers who oppose it!","popularity":885.572,"poster_path":"/h8Rb9gBr48ODIwYUttZNYeMWeUU.jpg","release_date":"2020-10-16","title":"Demon Slayer -Kimetsu no Yaiba- The Movie: Mugen Train","video":false,"vote_average":8.4,"vote_count":1444},{"adult":false,"backdrop_path":"/A0xW7GgeFQoQmPOn7HcHkBQ5nlb.jpg","genre_ids":[53,28],"id":817451,"original_language":"en","original_title":"Endangered Species","overview":"Jack Halsey takes his wife, their adult kids, and a friend for a dream vacation in Kenya. But as they venture off alone into a wilderness park, their safari van is flipped over by an angry rhino, leaving them injured and desperate. Then, as two of them go in search of rescue, a bloody, vicious encounter with a leopard and a clan of hyenas incites a desperate fight for survival.","popularity":793.01,"poster_path":"/ccsSqbpEqr2KK9eMvoeF8ERFCd5.jpg","release_date":"2021-05-27","title":"Endangered Species","video":false,"vote_average":6.3,"vote_count":74},{"adult":false,"backdrop_path":"/rAgsOIhqRS6tUthmHoqnqh9PIAE.jpg","genre_ids":[28,12,35,878],"id":436969,"original_language":"en","original_title":"The Suicide Squad","overview":"Supervillains Harley Quinn, Bloodsport, Peacemaker and a collection of nutty cons at Belle Reve prison join the super-secret, super-shady Task Force X as they are dropped off at the remote, enemy-infused island of Corto Maltese.","popularity":666.854,"poster_path":"/464N3J1i6L5SsazPmX9m3q1GiZ3.jpg","release_date":"2021-07-28","title":"The Suicide Squad","video":false,"vote_average":8.3,"vote_count":64}],"total_pages":56,"total_results":1112}
=======
{"page":2,"results":[{"adult":false,"backdrop_path":"/3RMbkXS4ocMmoJyAD3ZsWbm32Kx.jpg","genre_ids":[18,878,53],"id":615658,"original_language":"en","original_title":"Awake","overview":"After a sudden global event wipes out all electronics and takes away humankind’s ability to sleep, chaos quickly begins to consume the world. Only Jill, an ex-soldier with a troubled past, may hold the key to a cure in the form of her own daughter. The question is, can Jill safely deliver her daughter and save the world before she herself loses her mind.","popularity":1136.254,"poster_path":"/uZkNbB8isWXHMDNoIbqXvmslBMC.jpg","release_date":"2021-06-09","title":"Awake","video":false,"vote_average":6.1,"vote_count":570},{"adult":false,"backdrop_path":"/s15olg5LwRqTjgDd5KIfVXhcoqs.jpg","genre_ids":[27,53,28],"id":760883,"original_language":"de","original_title":"Blood Red Sky","overview":"A woman with a mysterious illness is forced into action when a group of terrorists attempt to hijack a transatlantic overnight flight. In order to protect her son she will have to reveal a dark secret, and unleash the inner monster she has fought to hide.","popularity":1427.675,"poster_path":"/ky8Fua6PD7FyyOA7JACh3GDETli.jpg","release_date":"2021-07-23","title":"Blood Red Sky","video":false,"vote_average":7.4,"vote_count":473},{"adult":false,"backdrop_path":"/c0izdYdnTe4uMRifHgvTA85wPz0.jpg","genre_ids":[28,12,27,80],"id":503736,"original_language":"en","original_title":"Army of the Dead","overview":"Following a zombie outbreak in Las Vegas, a group of mercenaries take the ultimate gamble: venturing into the quarantine zone to pull off the greatest heist ever attempted.","popularity":1140.14,"poster_path":"/z8CExJekGrEThbpMXAmCFvvgoJR.jpg","release_date":"2021-05-14","title":"Army of the Dead","video":false,"vote_average":6.4,"vote_count":2055},{"adult":false,"backdrop_path":"/ok7RdHhVngnwkvKj09tvtOvypG.jpg","genre_ids":[80,18,53,9648],"id":649409,"original_language":"en","original_title":"No Sudden Move","overview":"A group of criminals are brought together under mysterious circumstances and have to work together to uncover what's really going on when their simple job goes completely sideways.","popularity":1054.1,"poster_path":"/34BmdJkdvRweC3xJJFlOFQ2IbYc.jpg","release_date":"2021-06-24","title":"No Sudden Move","video":false,"vote_average":6.6,"vote_count":145},{"adult":false,"backdrop_path":"/qi6Edc1OPcyENecGtz8TF0DUr9e.jpg","genre_ids":[27,9648,53],"id":423108,"original_language":"en","original_title":"The Conjuring: The Devil Made Me Do It","overview":"Paranormal investigators Ed and Lorraine Warren encounter what would become one of the most sensational cases from their files. The fight for the soul of a young boy takes them beyond anything they'd ever seen before, to mark the first time in U.S. history that a murder suspect would claim demonic possession as a defense.","popularity":1156.593,"poster_path":"/xbSuFiJbbBWCkyCCKIMfuDCA4yV.jpg","release_date":"2021-05-25","title":"The Conjuring: The Devil Made Me Do It","video":false,"vote_average":7.9,"vote_count":3279},{"adult":false,"backdrop_path":"/9yBVqNruk6Ykrwc32qrK2TIE5xw.jpg","genre_ids":[28,14,12],"id":460465,"original_language":"en","original_title":"Mortal Kombat","overview":"Washed-up MMA fighter Cole Young, unaware of his heritage, and hunted by Emperor Shang Tsung's best warrior, Sub-Zero, seeks out and trains with Earth's greatest champions as he prepares to stand against the enemies of Outworld in a high stakes battle for the universe.","popularity":1009.889,"poster_path":"/nkayOAUBUu4mMvyNf9iHSUiPjF1.jpg","release_date":"2021-04-07","title":"Mortal Kombat","video":false,"vote_average":7.4,"vote_count":3422},{"adult":false,"backdrop_path":"/inJjDhCjfhh3RtrJWBmmDqeuSYC.jpg","genre_ids":[28,12,14],"id":399566,"original_language":"en","original_title":"Godzilla vs. Kong","overview":"In a time when monsters walk the Earth, humanity’s fight for its future sets Godzilla and Kong on a collision course that will see the two most powerful forces of nature on the planet collide in a spectacular battle for the ages.","popularity":992.262,"poster_path":"/pgqgaUx1cJb5oZQQ5v0tNARCeBp.jpg","release_date":"2021-03-24","title":"Godzilla vs. Kong","video":false,"vote_average":8,"vote_count":6564},{"adult":false,"backdrop_path":"/pfcj8IYB5bK8RTWiHwOCGfIzVw6.jpg","genre_ids":[18,14,53],"id":845222,"original_language":"ko","original_title":"킹덤: 아신전","overview":"Tragedy, betrayal and a mysterious discovery fuel a woman's vengeance for the loss of her tribe and family in this special episode of \"Kingdom.\"","popularity":807.065,"poster_path":"/cE9SBjWMUK0HFxmT1cVFDtu5CLT.jpg","release_date":"2021-07-23","title":"Kingdom: Ashin of the North","video":false,"vote_average":7.7,"vote_count":194},{"adult":false,"backdrop_path":"/q2mtFwvQQbun4nM9p16gA3Hqb0H.jpg","genre_ids":[9648,53,27],"id":631843,"original_language":"en","original_title":"Old","overview":"A group of families on a tropical holiday discover that the secluded beach where they are staying is somehow causing them to age rapidly – reducing their entire lives into a single day.","popularity":806.465,"poster_path":"/cGLL4SY6jFjjUZkz2eFxgtCtGgK.jpg","release_date":"2021-07-21","title":"Old","video":false,"vote_average":6.4,"vote_count":238},{"adult":false,"backdrop_path":"/xPpXYnCWfjkt3zzE0dpCNME1pXF.jpg","genre_ids":[16,28,12,14],"id":635302,"original_language":"ja","original_title":"劇場版「鬼滅の刃」無限列車編","overview":"Tanjirō Kamado, joined with Inosuke Hashibira, a boy raised by boars who wears a boar's head, and Zenitsu Agatsuma, a scared boy who reveals his true power when he sleeps, boards the Infinity Train on a new mission with the Fire Hashira, Kyōjurō Rengoku, to defeat a demon who has been tormenting the people and killing the demon slayers who oppose it!","popularity":885.572,"poster_path":"/h8Rb9gBr48ODIwYUttZNYeMWeUU.jpg","release_date":"2020-10-16","title":"Demon Slayer -Kimetsu no Yaiba- The Movie: Mugen Train","video":false,"vote_average":8.4,"vote_count":1444},{"adult":false,"backdrop_path":"/syjh4WJARo5gwjyUYxOPOElWGWh.jpg","genre_ids":[27,53],"id":698320,"original_language":"en","original_title":"The Mad Hatter","overview":"An eccentric professor takes four of his students to the mansion of the “Mad Hatter”, an urban legend driven insane by mercury poisoning and grief. He says that there’s nothing to worry about now: the strange, shambling “caretakers” that haunt the home are merely servants that have fallen to inbreeding, and the Hatter himself has been dead for years. But as the students start disappearing one by one, those that remain start to question if the professor’s experiment is truly scientific...and if the Hatter didn’t just succumb to his madness, but decided to spread it...","popularity":940.814,"poster_path":"/lTUfalNirpq7SBASa6lnzs27iam.jpg","release_date":"2021-01-29","title":"The Mad Hatter","video":false,"vote_average":6.3,"vote_count":34},{"adult":false,"backdrop_path":"/5C8bfwglg91uZhc2fbfpSjNGamV.jpg","genre_ids":[27,9648],"id":591273,"original_language":"en","original_title":"Fear Street: 1994","overview":"In 1994, a group of teenagers discovers that the terrifying events which have haunted their town for generations ​are all connected — and that they may be the next targets.","popularity":761.372,"poster_path":"/9J9Wy39ZjrVmfk7yMkulpcI5sy0.jpg","release_date":"2021-06-28","title":"Fear Street: 1994","video":false,"vote_average":6.8,"vote_count":855},{"adult":false,"backdrop_path":"/yC4DRg5aGgNpkHpUDpLtBqzownS.jpg","genre_ids":[878,28],"id":586047,"original_language":"ko","original_title":"서복","overview":"A former intelligence agent gets involved with the first human clone, Seo Bok, who others seek, causing trouble.","popularity":752.875,"poster_path":"/nxxuWC32Y6TULj4VnVwMPUFLIpK.jpg","release_date":"2021-04-12","title":"Seobok","video":false,"vote_average":7.6,"vote_count":69},{"adult":false,"backdrop_path":"/pVNXmfZvQKFdUKVYNJxZAiy69DC.jpg","genre_ids":[28,12],"id":529106,"original_language":"ru","original_title":"Майор Гром: Чумной Доктор","overview":"Igor Grom is a skilled policeman from St. Petersburg, known for his daring nature and uncompromising attitude towards the criminals of all kinds. Incredible strength, analytical mind and integrity – these qualities make Major Grom the perfect policeman. Working tirelessly, he always pushes through, and meets the challenges standing in the way.","popularity":830.05,"poster_path":"/wnesEmcq7xdw1Rm1Bn6XEFTkenR.jpg","release_date":"2021-04-01","title":"Major Grom: Plague Doctor","video":false,"vote_average":7,"vote_count":223},{"adult":false,"backdrop_path":"/7jpj6ek9dftr3IXm7Pnq2pkhir3.jpg","genre_ids":[27,9648],"id":591274,"original_language":"en","original_title":"Fear Street: 1978","overview":"In 1978, two rival groups at Camp Nightwing must band together to solve a terrifying mystery when horrors from their towns' history come alive.","popularity":695.095,"poster_path":"/5dNTxhoGDTHHGqUTdxcr4H1dqlU.jpg","release_date":"2021-07-08","title":"Fear Street: 1978","video":false,"vote_average":7.4,"vote_count":683},{"adult":false,"backdrop_path":"/rlNnwObbMu5G2FaOUlacnUIdIIA.jpg","genre_ids":[16,35,10751,12],"id":726684,"original_language":"fr","original_title":"Miraculous World : Shanghai, la légende de Ladydragon","overview":"On school break, Marinette heads to Shanghai to meet Adrien. But after arriving, Marinette loses all her stuff, including the Miraculous that allows her to turn into Ladybug!","popularity":703.442,"poster_path":"/qQ0VKsGRQ2ofAmswGNzZnvC1xPE.jpg","release_date":"2021-04-04","title":"Miraculous World: Shanghai – The Legend of Ladydragon","video":false,"vote_average":7.9,"vote_count":521},{"adult":false,"backdrop_path":"/A0xW7GgeFQoQmPOn7HcHkBQ5nlb.jpg","genre_ids":[53,28],"id":817451,"original_language":"en","original_title":"Endangered Species","overview":"Jack Halsey takes his wife, their adult kids, and a friend for a dream vacation in Kenya. But as they venture off alone into a wilderness park, their safari van is flipped over by an angry rhino, leaving them injured and desperate. Then, as two of them go in search of rescue, a bloody, vicious encounter with a leopard and a clan of hyenas incites a desperate fight for survival.","popularity":793.01,"poster_path":"/ccsSqbpEqr2KK9eMvoeF8ERFCd5.jpg","release_date":"2021-05-27","title":"Endangered Species","video":false,"vote_average":6.3,"vote_count":74},{"adult":false,"backdrop_path":"/rAgsOIhqRS6tUthmHoqnqh9PIAE.jpg","genre_ids":[28,12,35,878],"id":436969,"original_language":"en","original_title":"The Suicide Squad","overview":"Supervillains Harley Quinn, Bloodsport, Peacemaker and a collection of nutty cons at Belle Reve prison join the super-secret, super-shady Task Force X as they are dropped off at the remote, enemy-infused island of Corto Maltese.","popularity":666.854,"poster_path":"/464N3J1i6L5SsazPmX9m3q1GiZ3.jpg","release_date":"2021-07-28","title":"The Suicide Squad","video":false,"vote_average":8.3,"vote_count":64},{"adult":false,"backdrop_path":"/vqEjXzWdzPbV2DZ7bk29weDFiDl.jpg","genre_ids":[16,12,10751,37],"id":637693,"original_language":"en","original_title":"Spirit Untamed","overview":"Lucky Prescott's life is changed forever when she moves from her home in the city to a small frontier town and befriends a wild mustang named Spirit.","popularity":688.728,"poster_path":"/5cbGVDmRMYVzkq5cItZ7cYlDdDR.jpg","release_date":"2021-05-20","title":"Spirit Untamed","video":false,"vote_average":7.7,"vote_count":184},{"adult":false,"backdrop_path":"/uWeffFhprUohUL5GO3YfQqdsVrI.jpg","genre_ids":[18,80,28,53],"id":615457,"original_language":"en","original_title":"Nobody","overview":"Hutch Mansell, a suburban dad, overlooked husband, nothing neighbor — a \"nobody.\" When two thieves break into his home one night, Hutch's unknown long-simmering rage is ignited and propels him on a brutal path that will uncover dark secrets he fought to leave behind.","popularity":649.242,"poster_path":"/oBgWY00bEFeZ9N25wWVyuQddbAo.jpg","release_date":"2021-03-26","title":"Nobody","video":false,"vote_average":8.4,"vote_count":2878}],"total_pages":500,"total_results":10000}
>>>>>>> main
